Codes/dump.vcd
$date
	Fri Jul  5 01:55:36 2024
$end
$version
	QuestaSim Version 10.6c
$end
$timescale
	100ps
$end

$scope module top $end
$var reg 1 ! clk $end
$var reg 1 " rst $end

$scope module duv $end
$var wire 1 # address [4] $end
$var wire 1 $ address [3] $end
$var wire 1 % address [2] $end
$var wire 1 & address [1] $end
$var wire 1 ' address [0] $end
$var wire 1 ( write_enb $end
$var wire 1 ) read_enb $end
$var wire 1 * data_in [7] $end
$var wire 1 + data_in [6] $end
$var wire 1 , data_in [5] $end
$var wire 1 - data_in [4] $end
$var wire 1 . data_in [3] $end
$var wire 1 / data_in [2] $end
$var wire 1 0 data_in [1] $end
$var wire 1 1 data_in [0] $end
$var wire 1 2 clk $end
$var wire 1 3 reset $end
$var reg 8 4 data_out [7:0] $end
$upscope $end
$upscope $end

$scope begin ram_pkg $end
$upscope $end

$scope begin std $end
$upscope $end
$enddefinitions $end
#0
$dumpvars
0!
x"
bx 4
x3
02
x'
x&
x%
x$
x#
x1
x0
x/
x.
x-
x,
x+
x*
x(
x)
$end
#200
1!
12
0"
03
bz 4
#400
0!
02
#600
1!
12
1"
13
#800
0!
02
#1000
1!
12
#1200
0!
02
#1400
1!
12
1(
0)
1'
0&
1%
1$
0#
11
00
0/
1.
1-
1,
0+
0*
#1600
0!
02
#1800
1!
12
0(
#2000
0!
02
#2200
1!
12
1(
1&
1#
01
0-
#2400
0!
02
#2600
1!
12
0(
#2800
0!
02
#3000
1!
12
1(
0'
0&
0%
0$
0#
1/
0.
0,
1+
1*
#3200
0!
02
#3400
1!
12
0(
#3600
0!
02
#3800
1!
12
1(
1'
1&
1$
11
10
0/
0*
#4000
0!
02
#4200
1!
12
0(
#4400
0!
02
#4600
1!
12
1(
0&
0$
01
00
1-
0+
1*
#4800
0!
02
#5000
1!
12
0(
#5200
0!
02
#5400
1!
12
1(
0'
1&
1%
10
1/
0-
1+
#5600
0!
02
#5800
1!
12
0(
#6000
0!
02
#6200
1!
12
1(
0&
1$
11
00
0/
1,
0+
0*
#6400
0!
02
#6600
1!
12
0(
#6800
0!
02
#7000
1!
12
1(
1&
0%
0$
01
10
1/
1.
1-
1*
#7200
0!
02
#7400
1!
12
0(
#7600
0!
02
#7800
1!
12
1(
1'
0&
1$
0.
0-
0,
0*
#8000
0!
02
#8200
1!
12
0(
#8400
0!
02
#8600
1!
12
1(
1%
0$
1#
0/
1.
1-
1,
1+
1*
#8800
0!
02
#9000
1!
12
0(
#9200
0!
02
#9400
1!
12
#9600
0!
02
#9800
1!
12
#10000
0!
02
#10200
1!
12
#10400
0!
02
#10600
1!
12
#10800
0!
02
#11000
1!
12
1)
0'
0%
00
0,
0+
0*
#11200
0!
02
#11400
1!
12
bx 4
#11600
0!
02
#11800
1!
12
1&
1%
0#
11
10
0-
1+
#12000
0!
02
#12200
1!
12
b11000110 4
#12400
0!
02
#12600
1!
12
1'
0&
1#
01
1,
0+
1*
#12800
0!
02
#13000
1!
12
b11111010 4
#13200
0!
02
#13400
1!
12
0'
1/
1-
1+
0*
#13600
0!
02
#13800
1!
12
bx 4
#14000
0!
02
#14200
1!
12
1&
1$
00
0/
0-
#14400
0!
02
#14600
1!
12
#14800
0!
02
#15000
1!
12
11
10
0.
1-
0,
0+
#15200
0!
02
#15400
1!
12
#15600
0!
02
#15800
1!
12
0%
0$
0#
01
1/
1,
1*
#16000
0!
02
#16200
1!
12
b10111110 4
#16400
0!
02
#16600
1!
12
1'
0&
1%
1#
11
1.
0,
#16800
0!
02
#17000
1!
12
b11111010 4
#17200
0!
02
#17400
1!
12
0%
0#
01
0/
1+
#17600
0!
02
#17800
1!
12
b10010000 4
#18000
0!
02
#18200
1!
12
0'
1$
1#
00
0.
0-
1,
0+
0*
#18400
0!
02
#18600
1!
12
bx 4
